soj/build/obj_dir/wave.vcd
$version Generated by VerilatedVcd $end
$date Mon Mar  7 20:32:37 2022 $end
$timescale 1ps $end

 $scope module TOP $end
  $var wire  1 f clk $end
  $var wire 32 h instruction [31:0] $end
  $var wire 32 i pc [31:0] $end
  $var wire  1 g rst $end
  $scope module ysyx_22040127_top $end
   $var wire  1 f clk $end
   $var wire  1 q ebreak $end
   $var wire 64 o imm [63:0] $end
   $var wire  1 y imm_src0 $end
   $var wire  1 e imm_src1 $end
   $var wire  3 d inst_type [2:0] $end
   $var wire 32 h instruction [31:0] $end
   $var wire 32 i pc [31:0] $end
   $var wire 64 j r_wdata [63:0] $end
   $var wire  1 c r_wen $end
   $var wire  5 l rd [4:0] $end
   $var wire 64 r reg_data0 [63:0] $end
   $var wire 64 v reg_data1 [63:0] $end
   $var wire  5 m rs1 [4:0] $end
   $var wire  5 n rs2 [4:0] $end
   $var wire  1 g rst $end
   $var wire 64 r src0 [63:0] $end
   $var wire 64 t src1 [63:0] $end
   $scope module dec $end
    $var wire  3 !! TYPE_B [2:0] $end
    $var wire  3 z TYPE_I [2:0] $end
    $var wire  3 } TYPE_J [2:0] $end
    $var wire  3 "! TYPE_N [2:0] $end
    $var wire  3 ~ TYPE_R [2:0] $end
    $var wire  3 | TYPE_S [2:0] $end
    $var wire  3 { TYPE_U [2:0] $end
    $var wire  1 f clk $end
    $var wire 64 o imm [63:0] $end
    $var wire  3 d inst_type [2:0] $end
    $var wire 32 h instruction [31:0] $end
    $var wire  1 c r_wen $end
    $var wire  5 l rd [4:0] $end
    $var wire  5 m rs1 [4:0] $end
    $var wire  5 n rs2 [4:0] $end
    $var wire  1 g rst $end
   $upscope $end
   $scope module exe $end
    $var wire 32 (! TYPE_B [31:0] $end
    $var wire 32 #! TYPE_I [31:0] $end
    $var wire 32 &! TYPE_J [31:0] $end
    $var wire 32 '! TYPE_R [31:0] $end
    $var wire 32 %! TYPE_S [31:0] $end
    $var wire 32 $! TYPE_U [31:0] $end
    $var wire 64 j alu_output [63:0] $end
    $var wire  1 f clk $end
    $var wire 64 o imm [63:0] $end
    $var wire  3 d inst_type [2:0] $end
    $var wire 32 h instruction [31:0] $end
    $var wire  1 g rst $end
    $var wire 64 r src0 [63:0] $end
    $var wire 64 t src1 [63:0] $end
   $upscope $end
   $scope module regs $end
    $var wire 32 (! ADDR_WIDTH [31:0] $end
    $var wire 32 )! DATA_WIDTH [31:0] $end
    $var wire  1 f clk $end
    $var wire  1 x non_zerow $end
    $var wire  5 m raddr1 [4:0] $end
    $var wire  5 n raddr2 [4:0] $end
    $var wire 64 r rdata1 [63:0] $end
    $var wire 64 v rdata2 [63:0] $end
    $var wire 64 # rf[0] [63:0] $end
    $var wire 64 7 rf[10] [63:0] $end
    $var wire 64 9 rf[11] [63:0] $end
    $var wire 64 ; rf[12] [63:0] $end
    $var wire 64 = rf[13] [63:0] $end
    $var wire 64 ? rf[14] [63:0] $end
    $var wire 64 A rf[15] [63:0] $end
    $var wire 64 C rf[16] [63:0] $end
    $var wire 64 E rf[17] [63:0] $end
    $var wire 64 G rf[18] [63:0] $end
    $var wire 64 I rf[19] [63:0] $end
    $var wire 64 % rf[1] [63:0] $end
    $var wire 64 K rf[20] [63:0] $end
    $var wire 64 M rf[21] [63:0] $end
    $var wire 64 O rf[22] [63:0] $end
    $var wire 64 Q rf[23] [63:0] $end
    $var wire 64 S rf[24] [63:0] $end
    $var wire 64 U rf[25] [63:0] $end
    $var wire 64 W rf[26] [63:0] $end
    $var wire 64 Y rf[27] [63:0] $end
    $var wire 64 [ rf[28] [63:0] $end
    $var wire 64 ] rf[29] [63:0] $end
    $var wire 64 ' rf[2] [63:0] $end
    $var wire 64 _ rf[30] [63:0] $end
    $var wire 64 a rf[31] [63:0] $end
    $var wire 64 ) rf[3] [63:0] $end
    $var wire 64 + rf[4] [63:0] $end
    $var wire 64 - rf[5] [63:0] $end
    $var wire 64 / rf[6] [63:0] $end
    $var wire 64 1 rf[7] [63:0] $end
    $var wire 64 3 rf[8] [63:0] $end
    $var wire 64 5 rf[9] [63:0] $end
    $var wire  5 l waddr [4:0] $end
    $var wire 64 j wdata [63:0] $end
    $var wire  1 c wen $end
   $upscope $end
  $upscope $end
 $upscope $end
$enddefinitions $end


#1
b0000000000000000000000000000000000000000000000000000000000000000 #
b0000000000000000000000000000000000000000000000000000000000000000 %
b0000000000000000000000000000000000000000000000000000000000000000 '
b0000000000000000000000000000000000000000000000000000000000000000 )
b0000000000000000000000000000000000000000000000000000000000000000 +
b0000000000000000000000000000000000000000000000000000000000000000 -
b0000000000000000000000000000000000000000000000000000000000000000 /
b0000000000000000000000000000000000000000000000000000000000000000 1
b0000000000000000000000000000000000000000000000000000000000000000 3
b0000000000000000000000000000000000000000000000000000000000000000 5
b0000000000000000000000000000000000000000000000000000000000000000 7
b0000000000000000000000000000000000000000000000000000000000000000 9
b0000000000000000000000000000000000000000000000000000000000000000 ;
b0000000000000000000000000000000000000000000000000000000000000000 =
b0000000000000000000000000000000000000000000000000000000000000000 ?
b0000000000000000000000000000000000000000000000000000000000000000 A
b0000000000000000000000000000000000000000000000000000000000000000 C
b0000000000000000000000000000000000000000000000000000000000000000 E
b0000000000000000000000000000000000000000000000000000000000000000 G
b0000000000000000000000000000000000000000000000000000000000000000 I
b0000000000000000000000000000000000000000000000000000000000000000 K
b0000000000000000000000000000000000000000000000000000000000000000 M
b0000000000000000000000000000000000000000000000000000000000000000 O
b0000000000000000000000000000000000000000000000000000000000000000 Q
b0000000000000000000000000000000000000000000000000000000000000000 S
b0000000000000000000000000000000000000000000000000000000000000000 U
b0000000000000000000000000000000000000000000000000000000000000000 W
b0000000000000000000000000000000000000000000000000000000000000000 Y
b0000000000000000000000000000000000000000000000000000000000000000 [
b0000000000000000000000000000000000000000000000000000000000000000 ]
b0000000000000000000000000000000000000000000000000000000000000000 _
b0000000000000000000000000000000000000000000000000000000000000000 a
1c
b000 d
1e
1f
1g
b00000000000000000000000000000000 h
b00000000000000000000000000000000 i
b0000000000000000000000000000000000000000000000000000000000000000 j
b00000 l
b00000 m
b00000 n
b0000000000000000000000000000000000000000000000000000000000000000 o
0q
b0000000000000000000000000000000000000000000000000000000000000000 r
b0000000000000000000000000000000000000000000000000000000000000000 t
b0000000000000000000000000000000000000000000000000000000000000000 v
0x
0y
b000 z
b001 {
b010 |
b011 }
b100 ~
b101 !!
b110 "!
b00000000000000000000000000000000 #!
b00000000000000000000000000000001 $!
b00000000000000000000000000000010 %!
b00000000000000000000000000000011 &!
b00000000000000000000000000000100 '!
b00000000000000000000000000000101 (!
b00000000000000000000000001000000 )!
#2
0f
#3
1f
b10000000000000000000000000000000 i
#4
0f
#5
1f
#6
0f
#7
1f
#8
0f
#9
1f
#10
0f
#11
1f
0g
b00010010001100001000000010010011 h
b0000000000000000000000000000000000000000000000000000000100100011 j
b00001 l
b00001 m
b00011 n
b0000000000000000000000000000000000000000000000000000000100100011 o
b0000000000000000000000000000000000000000000000000000000100100011 t
1x
#12
0f
#13
b0000000000000000000000000000000000000000000000000000000100100011 %
1f
b11111111111100001000000010010011 h
b10000000000000000000000000000100 i
b0000000000000000000000000000000000000000000000000000000100100010 j
b11111 n
b1111111111111111111111111111111111111111111111111111111111111111 o
b0000000000000000000000000000000000000000000000000000000100100011 r
b1111111111111111111111111111111111111111111111111111111111111111 t
#14
0f
#15
b0000000000000000000000000000000000000000000000000000000100100010 %
1f
b00010010001100001000000010010011 h
b10000000000000000000000000001000 i
b0000000000000000000000000000000000000000000000000000001001000101 j
b00011 n
b0000000000000000000000000000000000000000000000000000000100100011 o
b0000000000000000000000000000000000000000000000000000000100100010 r
b0000000000000000000000000000000000000000000000000000000100100011 t
#16
0f
#17
b0000000000000000000000000000000000000000000000000000001001000101 %
1f
b00000000000000000000000000000000 h
b10000000000000000000000000001100 i
b0000000000000000000000000000000000000000000000000000000000000000 j
b00000 l
b00000 m
b00000 n
b0000000000000000000000000000000000000000000000000000000000000000 o
b0000000000000000000000000000000000000000000000000000000000000000 r
b0000000000000000000000000000000000000000000000000000000000000000 t
0x
#18
0f
#19
1f
b11111111111100001000000010010011 h
b10000000000000000000000000010000 i
b0000000000000000000000000000000000000000000000000000001001000100 j
b00001 l
b00001 m
b11111 n
b1111111111111111111111111111111111111111111111111111111111111111 o
b0000000000000000000000000000000000000000000000000000001001000101 r
b1111111111111111111111111111111111111111111111111111111111111111 t
1x
#20
0f
#21
b0000000000000000000000000000000000000000000000000000001001000100 %
1f
b10000000000000000000000000010100 i
b0000000000000000000000000000000000000000000000000000001001000011 j
b0000000000000000000000000000000000000000000000000000001001000100 r
#22
0f
#23
b0000000000000000000000000000000000000000000000000000001001000011 %
1f
b10000000000000000000000000011000 i
b0000000000000000000000000000000000000000000000000000001001000010 j
b0000000000000000000000000000000000000000000000000000001001000011 r
#24
0f
#25
b0000000000000000000000000000000000000000000000000000001001000010 %
1f
b00000000000100000000000001110011 h
b10000000000000000000000000011100 i
b0000000000000000000000000000000000000000000000000000000000000001 j
b00000 l
b00000 m
b00001 n
b0000000000000000000000000000000000000000000000000000000000000001 o
b0000000000000000000000000000000000000000000000000000000000000000 r
b0000000000000000000000000000000000000000000000000000000000000001 t
b0000000000000000000000000000000000000000000000000000001001000010 v
0x
#26
0c
b110 d
0e
0f
b0000000000000000000000000000000000000000000000000000000000000000 j
1q
b0000000000000000000000000000000000000000000000000000001001000010 t
#27
1f
b00000000000000000000000000000000 h
b10000000000000000000000000100000 i
b00000 n
b0000000000000000000000000000000000000000000000000000000000000000 o
0q
b0000000000000000000000000000000000000000000000000000000000000000 t
b0000000000000000000000000000000000000000000000000000000000000000 v
